<?xml version="1.0" encoding="UTF-8"?>
<svg width="27px" height="27px" viewBox="0 0 27 27" version="1.1" xmlns="http://www.w3.org/2000/svg" xmlns:xlink="http://www.w3.org/1999/xlink">
    <!-- Generator: Sketch 48.2 (47327) - http://www.bohemiancoding.com/sketch -->
    <title>CHECK</title>
    <desc>Created with Sketch.</desc>
    <defs></defs>
    <g id="CHECK" stroke="none" stroke-width="1" fill="none" fill-rule="evenodd">
        <g>
            <circle id="Oval-2" fill="#0074FF" cx="13.5" cy="13.5" r="13.5"></circle>
            <path d="M11.2824918,16.2618929 L19.2292058,8.31517888 C19.8599716,7.68441312 20.8826449,7.68441312 21.5134107,8.31517888 C22.1441765,8.94594464 22.1441765,9.968618 21.5134107,10.5993838 L12.4279733,19.6848211 C11.802856,20.3099384 10.7928187,20.3155363 10.1608076,19.7016148 C10.128759,19.6742063 10.0975292,19.6453401 10.0672051,19.615016 L5.4865893,15.0344002 C4.85582354,14.4036345 4.85582354,13.3809611 5.4865893,12.7501954 C6.11735506,12.1194296 7.14002842,12.1194296 7.77079417,12.7501954 L11.2824918,16.2618929 Z" id="Combined-Shape" fill="#FFFFFF"></path>
        </g>
    </g>
</svg>