<?xml version="1.0" encoding="UTF-8"?>
<svg width="14px" height="14px" viewBox="0 0 14 14" version="1.1" xmlns="http://www.w3.org/2000/svg" xmlns:xlink="http://www.w3.org/1999/xlink">
    <!-- Generator: Sketch 49.1 (51147) - http://www.bohemiancoding.com/sketch -->
    <title>CHECK Copy</title>
    <desc>Created with Sketch.</desc>
    <defs></defs>
    <g id="Mobile" stroke="none" stroke-width="1" fill="none" fill-rule="evenodd">
        <g id="CHECK-Copy-5">
            <g id="CHECK">
                <circle id="Oval-2" fill="#D0021B" cx="7" cy="7" r="7"></circle>
                <path d="M5.63820992,6.82261245 L3.87492743,5.05932995 C3.5478637,4.73226623 3.5478637,4.20199115 3.87492743,3.87492743 C4.20199115,3.5478637 4.73226623,3.5478637 5.05932995,3.87492743 L6.82261245,5.63820992 L8.58589495,3.87492743 C8.91295867,3.5478637 9.44323375,3.5478637 9.77029748,3.87492743 C10.0973612,4.20199115 10.0973612,4.73226623 9.77029748,5.05932995 L8.00701498,6.82261245 L9.77029748,8.58589495 C10.0973612,8.91295867 10.0973612,9.44323375 9.77029748,9.77029748 C9.44323375,10.0973612 8.91295867,10.0973612 8.58589495,9.77029748 L6.82261245,8.00701498 L5.05932995,9.77029748 C4.73226623,10.0973612 4.20199115,10.0973612 3.87492743,9.77029748 C3.5478637,9.44323375 3.5478637,8.91295867 3.87492743,8.58589495 L5.63820992,6.82261245 Z" id="Combined-Shape" fill="#FFFFFF"></path>
            </g>
        </g>
    </g>
</svg>