<?xml version="1.0" encoding="UTF-8"?>
<svg width="26px" height="26px" viewBox="0 0 26 26" version="1.1" xmlns="http://www.w3.org/2000/svg" xmlns:xlink="http://www.w3.org/1999/xlink">
    <!-- Generator: Sketch 48.2 (47327) - http://www.bohemiancoding.com/sketch -->
    <title>Shape</title>
    <desc>Created with Sketch.</desc>
    <defs></defs>
    <g id="Mes-Infos" stroke="none" stroke-width="1" fill="none" fill-rule="evenodd" transform="translate(-228.000000, -287.000000)">
        <g id="Group-7" transform="translate(199.000000, 195.000000)" fill="#0074FF" fill-rule="nonzero">
            <g id="Group" transform="translate(25.000000, 88.000000)">
                <path d="M4,24.5840855 L4,30 L9.41591446,30 L25.3892515,14.026663 L19.973337,8.61074851 L4,24.5840855 Z M29.5775587,9.83835578 C30.1408138,9.27510068 30.1408138,8.36522705 29.5775587,7.80197195 L26.1980281,4.42244133 C25.6347729,3.85918622 24.7248993,3.85918622 24.1616442,4.42244133 L21.518678,7.06540758 L26.9345924,12.481322 L29.5775587,9.83835578 Z" id="Shape"></path>
            </g>
        </g>
    </g>
</svg>